Knapsack:
1. 7 kg Sack
2. Beginne ganz unten: Wert=15 bei 3/1
3. Ist oben gleich wie 15?
Ja, dann hat 3 Wert/kg keinen Wert.

4. Wert = 15 bei 9/5
5. Ist oben gleich wie 15?
Ja, dann oben verschieben

6. Wert = 15 bei 8/4
7. Oben ist nicht gleich. --> 8/4 hat einen Einfluss.
Nehme 4kg weg.
8. Wert = 7 bei 4/2 mit 3kg Sack
9. Oben ist gleich
10. Wert = 7 bei 7/3
11. Erste Zeile. Oben ist natürlich nicht gleich.
--> 7/3 hat einen Einfluss

Im Sack mit 7Kg:
8/4
7/3
--> 7Kg sack mit 15 Wert


